<svg width="47" height="63" viewBox="0 0 47 63" version="1.1" xmlns="http://www.w3.org/2000/svg" xmlns:xlink="http://www.w3.org/1999/xlink">
<g id="Canvas" fill="none">
<g id="150">
<g id="Layer 2">
<g id="Layer 1">
<g id="Vector">
<path d="M 27.2867 0C 27.6367 0.237884 27.9707 0.498442 28.2867 0.78L 43.7067 16.2C 43.8781 16.3725 44.0113 16.5792 44.0974 16.8067C 44.1836 17.0341 44.2208 17.2772 44.2067 17.52C 44.2067 27.36 44.2067 37.2 44.2067 47.04C 44.2067 50.97 44.2067 54.9 44.2067 58.82C 44.2067 60.04 43.9367 60.31 42.7167 60.31L 1.45666 60.31C 0.306662 60.31 0.0166623 60 0.0166623 58.89L 0.0166623 7.81C 0.0166623 5.69 0.0166623 3.57 0.0166623 1.45C -0.0288199 1.15996 0.0193818 0.862973 0.154261 0.602206C 0.289141 0.341439 0.503668 0.130483 0.766662 0L 27.2867 0ZM 42.2867 58.36L 42.2867 18.92C 42.2867 18.05 42.2867 18.04 41.4267 18.04C 36.8167 18.04 32.1967 18.04 27.5867 18.04C 26.4267 18.04 26.1767 17.78 26.1767 16.62L 26.1767 2L 17.8367 2C 12.75 2 7.66333 2 2.57666 2C 2.03666 2 1.88666 2.16 1.92666 2.67C 1.96666 3.18 1.92666 3.85 1.92666 4.44C 1.92666 22.1933 1.92666 39.9433 1.92666 57.69C 1.92666 58.27 2.08666 58.41 2.64666 58.41L 42.2667 58.41L 42.2867 58.36ZM 40.6867 16.15L 28.1067 3.71C 28.1067 3.71 28.1067 3.87 28.1067 4.03C 28.1067 7.85 28.1067 11.68 28.1067 15.51C 28.1067 16.03 28.2667 16.17 28.7767 16.16C 31.8767 16.16 34.9767 16.16 38.0767 16.16L 40.6867 16.15Z" transform="translate(1 1)" fill="#FC4A1A"/>
<path d="M 27.2867 0C 27.6367 0.237884 27.9707 0.498442 28.2867 0.78L 43.7067 16.2C 43.8781 16.3725 44.0113 16.5792 44.0974 16.8067C 44.1836 17.0341 44.2208 17.2772 44.2067 17.52C 44.2067 27.36 44.2067 37.2 44.2067 47.04C 44.2067 50.97 44.2067 54.9 44.2067 58.82C 44.2067 60.04 43.9367 60.31 42.7167 60.31L 1.45666 60.31C 0.306662 60.31 0.0166623 60 0.0166623 58.89L 0.0166623 7.81C 0.0166623 5.69 0.0166623 3.57 0.0166623 1.45C -0.0288199 1.15996 0.0193818 0.862973 0.154261 0.602206C 0.289141 0.341439 0.503668 0.130483 0.766662 0L 27.2867 0ZM 42.2867 58.36L 42.2867 18.92C 42.2867 18.05 42.2867 18.04 41.4267 18.04C 36.8167 18.04 32.1967 18.04 27.5867 18.04C 26.4267 18.04 26.1767 17.78 26.1767 16.62L 26.1767 2L 17.8367 2C 12.75 2 7.66333 2 2.57666 2C 2.03666 2 1.88666 2.16 1.92666 2.67C 1.96666 3.18 1.92666 3.85 1.92666 4.44C 1.92666 22.1933 1.92666 39.9433 1.92666 57.69C 1.92666 58.27 2.08666 58.41 2.64666 58.41L 42.2667 58.41L 42.2867 58.36ZM 40.6867 16.15L 28.1067 3.71C 28.1067 3.71 28.1067 3.87 28.1067 4.03C 28.1067 7.85 28.1067 11.68 28.1067 15.51C 28.1067 16.03 28.2667 16.17 28.7767 16.16C 31.8767 16.16 34.9767 16.16 38.0767 16.16L 40.6867 16.15Z" stroke-width="2" transform="translate(1 1)" stroke="#FC4A1A"/>
</g>
<g id="Vector_2">
<path d="M 13.0386 0.0275965L 24.6386 0.0275965C 24.8151 0.0174984 24.9921 0.0174984 25.1686 0.0275965C 25.3989 0.0347772 25.6182 0.128157 25.783 0.289262C 25.9478 0.450367 26.0462 0.66746 26.0586 0.897595C 26.0908 1.12497 26.0338 1.35599 25.8996 1.54235C 25.7654 1.72871 25.5644 1.856 25.3386 1.8976C 25.1486 1.94223 24.9537 1.96239 24.7586 1.9576L 1.48857 1.9576C 1.21561 1.96785 0.94263 1.93751 0.678571 1.8676C 0.569118 1.84616 0.465029 1.80315 0.372377 1.74106C 0.279725 1.67897 0.200365 1.59905 0.138928 1.50596C 0.077491 1.41288 0.0352072 1.30849 0.014543 1.19888C -0.00612111 1.08928 -0.00475188 0.976663 0.0185714 0.867597C 0.029816 0.648211 0.120041 0.440297 0.272592 0.282231C 0.425143 0.124166 0.629723 0.02662 0.848571 0.007596C 0.98505 -0.0025322 1.12209 -0.0025322 1.25857 0.007596L 13.0386 0.0275965Z" transform="translate(10.0684 25.1523)" fill="#FC4A1A"/>
<path d="M 13.0386 0.0275965L 24.6386 0.0275965C 24.8151 0.0174984 24.9921 0.0174984 25.1686 0.0275965C 25.3989 0.0347772 25.6182 0.128157 25.783 0.289262C 25.9478 0.450367 26.0462 0.66746 26.0586 0.897595C 26.0908 1.12497 26.0338 1.35599 25.8996 1.54235C 25.7654 1.72871 25.5644 1.856 25.3386 1.8976C 25.1486 1.94223 24.9537 1.96239 24.7586 1.9576L 1.48857 1.9576C 1.21561 1.96785 0.94263 1.93751 0.678571 1.8676C 0.569118 1.84616 0.465029 1.80315 0.372377 1.74106C 0.279725 1.67897 0.200365 1.59905 0.138928 1.50596C 0.077491 1.41288 0.0352072 1.30849 0.014543 1.19888C -0.00612111 1.08928 -0.00475188 0.976663 0.0185714 0.867597C 0.029816 0.648211 0.120041 0.440297 0.272592 0.282231C 0.425143 0.124166 0.629723 0.02662 0.848571 0.007596C 0.98505 -0.0025322 1.12209 -0.0025322 1.25857 0.007596L 13.0386 0.0275965Z" stroke-width="2" transform="translate(10.0684 25.1523)" stroke="#FC4A1A"/>
</g>
<g id="Vector_3">
<path d="M 12.9516 1.96076L 1.05155 1.96076C 0.571555 1.96076 0.151555 1.83076 0.0515547 1.36076C 0.000178371 1.19347 -0.0130157 1.01678 0.0129442 0.843716C 0.0389041 0.67065 0.103357 0.505611 0.201555 0.360757C 0.476789 0.117634 0.834512 -0.0111467 1.20156 0.000755909C 3.99156 0.000755909 6.78155 0.000755909 9.57155 0.000755909L 24.7816 0.000755909C 25.5316 0.000755909 26.0016 0.410756 25.9816 1.00076C 25.9616 1.59076 25.5116 1.94076 24.7916 1.94076L 12.9516 1.96076Z" transform="translate(10.1543 33.1895)" fill="#FC4A1A"/>
<path d="M 12.9516 1.96076L 1.05155 1.96076C 0.571555 1.96076 0.151555 1.83076 0.0515547 1.36076C 0.000178371 1.19347 -0.0130157 1.01678 0.0129442 0.843716C 0.0389041 0.67065 0.103357 0.505611 0.201555 0.360757C 0.476789 0.117634 0.834512 -0.0111467 1.20156 0.000755909C 3.99156 0.000755909 6.78155 0.000755909 9.57155 0.000755909L 24.7816 0.000755909C 25.5316 0.000755909 26.0016 0.410756 25.9816 1.00076C 25.9616 1.59076 25.5116 1.94076 24.7916 1.94076L 12.9516 1.96076Z" stroke-width="2" transform="translate(10.1543 33.1895)" stroke="#FC4A1A"/>
</g>
<g id="Vector_4">
<path d="M 13.0364 1.89015L 1.14643 1.89015C 0.901213 1.9277 0.650791 1.87276 0.443812 1.736C 0.236832 1.59925 0.0880731 1.39044 0.0264314 1.15014C -0.0072405 1.01194 -0.00876056 0.867854 0.0219873 0.728971C 0.0527351 0.590087 0.114931 0.46011 0.203792 0.349034C 0.292653 0.237959 0.405809 0.148746 0.534556 0.0882618C 0.663302 0.0277773 0.804207 -0.00236714 0.946431 0.000146104C 1.94643 0.000146104 2.94643 0.000146104 3.94643 0.000146104L 25.0964 0.000146104C 25.3617 0.000146104 25.616 0.105502 25.8035 0.293039C 25.9911 0.480575 26.0964 0.73493 26.0964 1.00015C 26.0927 1.12626 26.0636 1.25032 26.0108 1.36495C 25.9581 1.47957 25.8828 1.5824 25.7895 1.66732C 25.6962 1.75223 25.5867 1.8175 25.4677 1.85922C 25.3486 1.90093 25.2223 1.91826 25.0964 1.91015L 13.0964 1.91015L 13.0364 1.89015Z" transform="translate(10.0703 41.2891)" fill="#FC4A1A"/>
<path d="M 13.0364 1.89015L 1.14643 1.89015C 0.901213 1.9277 0.650791 1.87276 0.443812 1.736C 0.236832 1.59925 0.0880731 1.39044 0.0264314 1.15014C -0.0072405 1.01194 -0.00876056 0.867854 0.0219873 0.728971C 0.0527351 0.590087 0.114931 0.46011 0.203792 0.349034C 0.292653 0.237959 0.405809 0.148746 0.534556 0.0882618C 0.663302 0.0277773 0.804207 -0.00236714 0.946431 0.000146104C 1.94643 0.000146104 2.94643 0.000146104 3.94643 0.000146104L 25.0964 0.000146104C 25.3617 0.000146104 25.616 0.105502 25.8035 0.293039C 25.9911 0.480575 26.0964 0.73493 26.0964 1.00015C 26.0927 1.12626 26.0636 1.25032 26.0108 1.36495C 25.9581 1.47957 25.8828 1.5824 25.7895 1.66732C 25.6962 1.75223 25.5867 1.8175 25.4677 1.85922C 25.3486 1.90093 25.2223 1.91826 25.0964 1.91015L 13.0964 1.91015L 13.0364 1.89015Z" stroke-width="2" transform="translate(10.0703 41.2891)" stroke="#FC4A1A"/>
</g>
</g>
</g>
</g>
</g>
</svg>

