<svg width="61" height="38" viewBox="0 0 61 38" version="1.1" xmlns="http://www.w3.org/2000/svg" xmlns:xlink="http://www.w3.org/1999/xlink">
<g id="Canvas" fill="none">
<g id="a3_150">
<g id="Layer 2">
<g id="Layer 1">
<g id="Vector">
<path d="M 8.18343 0.0175033L 15.4634 0.0175033C 15.5734 0.0175033 15.6834 0.0175033 15.7934 0.0175033C 16.1234 0.0775033 16.3234 0.397502 16.3534 0.887502C 16.3965 1.01372 16.4078 1.14862 16.3862 1.28024C 16.3647 1.41186 16.3109 1.53611 16.2298 1.64197C 16.1487 1.74783 16.0427 1.83202 15.9212 1.88707C 15.7997 1.94211 15.6665 1.9663 15.5334 1.9575L 0.953432 1.9575C 0.779075 1.96256 0.605522 1.93194 0.44343 1.8675C 0.277613 1.7657 0.147902 1.61446 0.0725573 1.43507C -0.00278723 1.25568 -0.0199685 1.05717 0.0234317 0.867504C 0.0234317 0.397504 0.243432 0.0875031 0.543432 0.00750309C 0.62981 -0.00250062 0.717052 -0.00250062 0.80343 0.00750309L 8.18343 0.0175033Z" transform="translate(35.7969 18.043)" fill="#FC4A1A"/>
<path d="M 8.18343 0.0175033L 15.4634 0.0175033C 15.5734 0.0175033 15.6834 0.0175033 15.7934 0.0175033C 16.1234 0.0775033 16.3234 0.397502 16.3534 0.887502C 16.3965 1.01372 16.4078 1.14862 16.3862 1.28024C 16.3647 1.41186 16.3109 1.53611 16.2298 1.64197C 16.1487 1.74783 16.0427 1.83202 15.9212 1.88707C 15.7997 1.94211 15.6665 1.9663 15.5334 1.9575L 0.953432 1.9575C 0.779075 1.96256 0.605522 1.93194 0.44343 1.8675C 0.277613 1.7657 0.147902 1.61446 0.0725573 1.43507C -0.00278723 1.25568 -0.0199685 1.05717 0.0234317 0.867504C 0.0234317 0.397504 0.243432 0.0875031 0.543432 0.00750309C 0.62981 -0.00250062 0.717052 -0.00250062 0.80343 0.00750309L 8.18343 0.0175033Z" stroke-width="0.75" stroke-miterlimit="10" transform="translate(35.7969 18.043)" stroke="#FC4A1A"/>
</g>
<g id="Vector_2">
<path d="M 8.1309 1.97L 0.670899 1.97C 0.588807 1.97548 0.506463 1.96403 0.428987 1.93634C 0.35151 1.90866 0.280555 1.86533 0.220532 1.80906C 0.16051 1.75279 0.112702 1.68477 0.0800791 1.60924C 0.0474563 1.53371 0.0307169 1.45228 0.0309 1.37C -0.0308209 1.0347 0.000301078 0.688897 0.1209 0.370001C 0.188592 0.264581 0.27981 0.1763 0.387391 0.112099C 0.494972 0.0478972 0.61598 0.00952505 0.740899 -1.52588e-07C 2.4909 -1.52588e-07 4.2409 -1.52588e-07 5.9809 -1.52588e-07L 15.5509 -1.52588e-07C 16.0209 -1.52588e-07 16.3109 0.41 16.3009 1C 16.2909 1.59 16.0009 1.94 15.5509 1.94L 8.1309 1.97Z" transform="translate(35.8281 23.0293)" fill="#FC4A1A"/>
<path d="M 8.1309 1.97L 0.670899 1.97C 0.588807 1.97548 0.506463 1.96403 0.428987 1.93634C 0.35151 1.90866 0.280555 1.86533 0.220532 1.80906C 0.16051 1.75279 0.112702 1.68477 0.0800791 1.60924C 0.0474563 1.53371 0.0307169 1.45228 0.0309 1.37C -0.0308209 1.0347 0.000301078 0.688897 0.1209 0.370001C 0.188592 0.264581 0.27981 0.1763 0.387391 0.112099C 0.494972 0.0478972 0.61598 0.00952505 0.740899 -1.52588e-07C 2.4909 -1.52588e-07 4.2409 -1.52588e-07 5.9809 -1.52588e-07L 15.5509 -1.52588e-07C 16.0209 -1.52588e-07 16.3109 0.41 16.3009 1C 16.2909 1.59 16.0009 1.94 15.5509 1.94L 8.1309 1.97Z" stroke-width="0.75" stroke-miterlimit="10" transform="translate(35.8281 23.0293)" stroke="#FC4A1A"/>
</g>
<g id="Vector_3">
<path d="M 8.16828 1.89376C 5.67828 1.89376 3.16828 1.89376 0.708283 1.89376C 0.358283 1.89376 0.108284 1.71376 0.0182844 1.15376C -0.0717156 0.593759 0.178282 0.0237592 0.598282 0.00375915C 1.21828 0.00375915 1.84828 0.00375915 2.47828 0.00375915L 15.4783 0.00375915C 15.5649 -0.00125244 15.6517 -0.00125244 15.7383 0.00375915C 16.1083 0.00375915 16.3583 0.463759 16.3483 1.00376C 16.3383 1.54376 16.0783 1.91376 15.7083 1.91376L 8.16828 1.91376L 8.16828 1.89376Z" transform="translate(35.8418 28.1367)" fill="#FC4A1A"/>
<path d="M 8.16828 1.89376C 5.67828 1.89376 3.16828 1.89376 0.708283 1.89376C 0.358283 1.89376 0.108284 1.71376 0.0182844 1.15376C -0.0717156 0.593759 0.178282 0.0237592 0.598282 0.00375915C 1.21828 0.00375915 1.84828 0.00375915 2.47828 0.00375915L 15.4783 0.00375915C 15.5649 -0.00125244 15.6517 -0.00125244 15.7383 0.00375915C 16.1083 0.00375915 16.3583 0.463759 16.3483 1.00376C 16.3383 1.54376 16.0783 1.91376 15.7083 1.91376L 8.16828 1.91376L 8.16828 1.89376Z" stroke-width="0.75" stroke-miterlimit="10" transform="translate(35.8418 28.1367)" stroke="#FC4A1A"/>
</g>
<g id="Vector_4">
<path d="M 4.52784 0.0114333L 8.77784 0.0114333C 8.95784 0.0714333 9.06784 0.391433 9.08784 0.881433C 9.11596 1.05636 9.1083 1.23517 9.06533 1.40706C 9.02236 1.57894 8.94497 1.74032 8.83784 1.88143C 8.77542 1.92117 8.70147 1.93878 8.62784 1.93143L 0.487839 1.93143C 0.407058 1.93344 0.327345 1.91265 0.257839 1.87143C 0.152958 1.72929 0.0776739 1.56754 0.0364487 1.39577C -0.00477663 1.22399 -0.0111044 1.0457 0.0178396 0.871433C 0.0178396 0.401433 0.137839 0.0914333 0.317839 0.0114333C 0.363261 -0.00381127 0.412418 -0.00381127 0.457839 0.0114333L 4.52784 0.0114333Z" transform="translate(7.36133 9.97852)" fill="#FC4A1A"/>
<path d="M 4.52784 0.0114333L 8.77784 0.0114333C 8.95784 0.0714333 9.06784 0.391433 9.08784 0.881433C 9.11596 1.05636 9.1083 1.23517 9.06533 1.40706C 9.02236 1.57894 8.94497 1.74032 8.83784 1.88143C 8.77542 1.92117 8.70147 1.93878 8.62784 1.93143L 0.487839 1.93143C 0.407058 1.93344 0.327345 1.91265 0.257839 1.87143C 0.152958 1.72929 0.0776739 1.56754 0.0364487 1.39577C -0.00477663 1.22399 -0.0111044 1.0457 0.0178396 0.871433C 0.0178396 0.401433 0.137839 0.0914333 0.317839 0.0114333C 0.363261 -0.00381127 0.412418 -0.00381127 0.457839 0.0114333L 4.52784 0.0114333Z" stroke-width="0.75" stroke-miterlimit="10" transform="translate(7.36133 9.97852)" stroke="#FC4A1A"/>
</g>
<g id="Vector_5">
<path d="M 8.13124 1.97L 0.67124 1.97C 0.589148 1.97549 0.506805 1.96403 0.429328 1.93634C 0.351851 1.90865 0.280897 1.86533 0.220874 1.80906C 0.160851 1.75279 0.113042 1.68477 0.0804195 1.60924C 0.0477967 1.53371 0.0310569 1.45227 0.03124 1.37C -0.0309962 1.03472 0.000137933 0.68878 0.12124 0.37C 0.187742 0.263493 0.278675 0.174372 0.386498 0.110026C 0.494321 0.0456802 0.615929 0.00796371 0.74124 8.39233e-07C 2.49124 8.39233e-07 4.24124 8.39233e-07 5.99124 8.39233e-07L 15.5512 8.39233e-07C 16.0212 8.39233e-07 16.3212 0.420001 16.3012 1C 16.2812 1.58 16.0012 1.93 15.5512 1.93C 13.0812 1.98 10.6112 1.97 8.13124 1.97Z" transform="translate(7.36914 17.9902)" fill="#FC4A1A"/>
<path d="M 8.13124 1.97L 0.67124 1.97C 0.589148 1.97549 0.506805 1.96403 0.429328 1.93634C 0.351851 1.90865 0.280897 1.86533 0.220874 1.80906C 0.160851 1.75279 0.113042 1.68477 0.0804195 1.60924C 0.0477967 1.53371 0.0310569 1.45227 0.03124 1.37C -0.0309962 1.03472 0.000137933 0.68878 0.12124 0.37C 0.187742 0.263493 0.278675 0.174372 0.386498 0.110026C 0.494321 0.0456802 0.615929 0.00796371 0.74124 8.39233e-07C 2.49124 8.39233e-07 4.24124 8.39233e-07 5.99124 8.39233e-07L 15.5512 8.39233e-07C 16.0212 8.39233e-07 16.3212 0.420001 16.3012 1C 16.2812 1.58 16.0012 1.93 15.5512 1.93C 13.0812 1.98 10.6112 1.97 8.13124 1.97Z" stroke-width="0.75" stroke-miterlimit="10" transform="translate(7.36914 17.9902)" stroke="#FC4A1A"/>
</g>
<g id="Vector_6">
<path d="M 8.16828 1.89L 0.708283 1.89C 0.368283 1.89 0.108283 1.71 0.018283 1.14C -0.071717 0.570001 0.178283 0.0199995 0.598283 -4.57764e-07C 1.22828 -4.57764e-07 1.84828 -4.57764e-07 2.47828 -4.57764e-07L 15.7283 -4.57764e-07C 16.0983 -4.57764e-07 16.3483 0.45 16.3383 1C 16.3283 1.55 16.0783 1.92 15.6983 1.92L 8.16828 1.92L 8.16828 1.89Z" transform="translate(7.38086 23.0996)" fill="#FC4A1A"/>
<path d="M 8.16828 1.89L 0.708283 1.89C 0.368283 1.89 0.108283 1.71 0.018283 1.14C -0.071717 0.570001 0.178283 0.0199995 0.598283 -4.57764e-07C 1.22828 -4.57764e-07 1.84828 -4.57764e-07 2.47828 -4.57764e-07L 15.7283 -4.57764e-07C 16.0983 -4.57764e-07 16.3483 0.45 16.3383 1C 16.3283 1.55 16.0783 1.92 15.6983 1.92L 8.16828 1.92L 8.16828 1.89Z" stroke-width="0.75" stroke-miterlimit="10" transform="translate(7.38086 23.0996)" stroke="#FC4A1A"/>
</g>
<g id="Vector_7">
<path d="M 8.16828 1.89L 0.708283 1.89C 0.368283 1.89 0.108283 1.71 0.018283 1.14C -0.071717 0.570001 0.178283 0.0199995 0.598283 -4.57764e-07C 1.22828 -4.57764e-07 1.84828 -4.57764e-07 2.47828 -4.57764e-07L 15.7283 -4.57764e-07C 16.0983 -4.57764e-07 16.3483 0.45 16.3383 1C 16.3283 1.55 16.0783 1.92 15.6983 1.92L 8.16828 1.92L 8.16828 1.89Z" transform="translate(7.38086 28.0996)" fill="#FC4A1A"/>
<path d="M 8.16828 1.89L 0.708283 1.89C 0.368283 1.89 0.108283 1.71 0.018283 1.14C -0.071717 0.570001 0.178283 0.0199995 0.598283 -4.57764e-07C 1.22828 -4.57764e-07 1.84828 -4.57764e-07 2.47828 -4.57764e-07L 15.7283 -4.57764e-07C 16.0983 -4.57764e-07 16.3483 0.45 16.3383 1C 16.3283 1.55 16.0783 1.92 15.6983 1.92L 8.16828 1.92L 8.16828 1.89Z" stroke-width="0.75" stroke-miterlimit="10" transform="translate(7.38086 28.0996)" stroke="#FC4A1A"/>
</g>
<g id="Vector_8">
<path d="M 2.11 -4.76837e-09L 55.14 -4.76837e-09C 56.3053 -4.76837e-09 57.25 0.944679 57.25 2.11L 57.25 31.89C 57.25 33.0553 56.3053 34 55.14 34L 2.11 34C 0.944679 34 -4.76837e-09 33.0553 -4.76837e-09 31.89L -4.76837e-09 2.11C -4.76837e-09 0.944679 0.944679 -4.76837e-09 2.11 -4.76837e-09Z" stroke-width="2.75" stroke-miterlimit="10" stroke-linecap="round" transform="translate(2 2)" stroke="#FC4A1A"/>
</g>
</g>
</g>
</g>
</g>
</svg>

