<svg width="60" height="36" viewBox="0 0 60 36" version="1.1" xmlns="http://www.w3.org/2000/svg" xmlns:xlink="http://www.w3.org/1999/xlink">
<g id="Canvas" fill="none">
<g id="a3_75">
<g id="Layer 2">
<g id="Layer 1">
<g id="Vector">
<path d="M 8.19537 0.0178427L 15.4654 0.0178427C 15.5785 0.007682 15.6923 0.007682 15.8054 0.0178427C 16.1254 0.0678427 16.3254 0.397844 16.3554 0.887844C 16.396 1.0807 16.3743 1.28149 16.2934 1.46122C 16.2126 1.64096 16.0767 1.79035 15.9054 1.88784C 15.7907 1.93195 15.6682 1.95236 15.5454 1.94784L 0.945371 1.94784C 0.771687 1.95637 0.598103 1.92914 0.435373 1.86784C 0.276593 1.75922 0.152515 1.6071 0.0780194 1.42973C 0.00352361 1.25236 -0.0182296 1.05727 0.0153706 0.867843C 0.0153706 0.397843 0.235369 0.0878425 0.545369 0.0078425C 0.628375 -0.00261518 0.712364 -0.00261518 0.795369 0.0078425L 8.19537 0.0178427Z" transform="translate(34.8047 17.043)" fill="#FC4A1A"/>
</g>
<g id="Vector_2">
<path d="M 8.16805 1.97L 0.678049 1.97C 0.595478 1.97543 0.512665 1.96401 0.434648 1.93643C 0.356631 1.90884 0.285042 1.86567 0.224237 1.80955C 0.163432 1.75342 0.114685 1.68551 0.0809571 1.60994C 0.0472296 1.53438 0.0292289 1.45274 0.028051 1.37C -0.0310058 1.03381 0.00358901 0.687842 0.128049 0.37C 0.192609 0.261753 0.283076 0.171262 0.391306 0.106673C 0.499535 0.0420844 0.622132 0.00542766 0.748052 6.86646e-07C 2.48805 6.86646e-07 4.23805 6.86646e-07 5.98805 6.86646e-07L 15.5481 6.86646e-07C 16.0181 6.86646e-07 16.3181 0.410001 16.3081 1C 16.2981 1.59 16.0081 1.93 15.5581 1.93L 8.16805 1.97Z" transform="translate(34.832 22.0293)" fill="#FC4A1A"/>
</g>
<g id="Vector_3">
<path d="M 8.16088 1.89L 0.720878 1.89C 0.370878 1.89 0.120878 1.71 0.0208776 1.14C -0.0791224 0.57 0.190876 0.0200006 0.600876 6.10352e-07C 1.23088 6.10352e-07 1.86088 6.10352e-07 2.48088 6.10352e-07L 15.7409 6.10352e-07C 16.1009 6.10352e-07 16.3509 0.450001 16.3509 1C 16.3509 1.55 16.0809 1.92 15.7109 1.92L 8.16088 1.92L 8.16088 1.89Z" transform="translate(34.8398 27.1094)" fill="#FC4A1A"/>
</g>
<g id="Vector_4">
<path d="M 4.58032 0.0272839L 8.68032 0.0272839C 8.74327 0.017522 8.80736 0.017522 8.87032 0.0272839C 9.05032 0.0772839 9.16032 0.397284 9.18032 0.897284C 9.20824 1.07289 9.19955 1.25237 9.15481 1.42445C 9.11007 1.59654 9.03023 1.75752 8.92032 1.89728C 8.86299 1.94059 8.79202 1.96188 8.72032 1.95728L 0.540317 1.95728C 0.435579 1.96657 0.331397 1.93423 0.250318 1.86728C 0.146656 1.72466 0.072854 1.56257 0.0333328 1.39074C -0.0061885 1.21891 -0.0106153 1.04087 0.0203175 0.867284C 0.0203175 0.397284 0.140317 0.0872834 0.310317 0.00728345C 0.356479 -0.00242843 0.404156 -0.00242843 0.450317 0.00728345L 4.58032 0.0272839Z" transform="translate(6.32031 8.97266)" fill="#FC4A1A"/>
</g>
<g id="Vector_5">
<path d="M 8.13772 1.96L 0.677718 1.96C 0.595147 1.96543 0.512333 1.95401 0.434316 1.92643C 0.356299 1.89884 0.28471 1.85567 0.223905 1.79955C 0.1631 1.74342 0.114351 1.67551 0.0806236 1.59994C 0.0468961 1.52438 0.0288959 1.44274 0.027718 1.36C -0.0308223 1.02379 0.00375991 0.677963 0.127718 0.36C 0.193464 0.253613 0.284448 0.165096 0.3926 0.102298C 0.500753 0.0394995 0.622732 0.00436259 0.747718 9.15527e-07C 2.49772 9.15527e-07 4.23772 9.15527e-07 5.98772 9.15527e-07L 15.5577 9.15527e-07C 16.0177 9.15527e-07 16.3177 0.410001 16.3077 1C 16.2977 1.59 16.0077 1.94 15.5577 1.94L 8.13772 1.96Z" transform="translate(6.37305 17.0391)" fill="#FC4A1A"/>
</g>
<g id="Vector_6">
<path d="M 8.18088 1.89374C 5.69088 1.89374 3.18088 1.89374 0.720877 1.89374C 0.370877 1.89374 0.120877 1.72374 0.020877 1.15374C -0.079123 0.583742 0.190877 0.0337426 0.600877 0.00374265C 1.23088 0.00374265 1.86088 0.00374265 2.49088 0.00374265L 15.4909 0.00374265C 15.5775 -0.00124673 15.6643 -0.00124673 15.7509 0.00374265C 16.1109 0.00374265 16.3709 0.463743 16.3609 1.00374C 16.3509 1.54374 16.0909 1.91374 15.7209 1.91374L 8.18088 1.91374L 8.18088 1.89374Z" transform="translate(6.37891 22.1055)" fill="#FC4A1A"/>
</g>
<g id="Vector_7">
<path d="M 8.18088 1.89374C 5.69088 1.89374 3.18088 1.89374 0.720877 1.89374C 0.370877 1.89374 0.120877 1.72374 0.020877 1.15374C -0.079123 0.583742 0.190877 0.0337426 0.600877 0.00374265C 1.23088 0.00374265 1.86088 0.00374265 2.49088 0.00374265L 15.4909 0.00374265C 15.5775 -0.00124673 15.6643 -0.00124673 15.7509 0.00374265C 16.1109 0.00374265 16.3709 0.463743 16.3609 1.00374C 16.3509 1.54374 16.0909 1.91374 15.7209 1.91374L 8.18088 1.91374L 8.18088 1.89374Z" transform="translate(6.37891 27.1055)" fill="#FC4A1A"/>
</g>
<g id="Vector_8">
<path d="M 2.11 0L 55.14 0C 56.3053 0 57.25 0.944679 57.25 2.11L 57.25 31.89C 57.25 33.0553 56.3053 34 55.14 34L 2.11 34C 0.944679 34 0 33.0553 0 31.89L 0 2.11C 0 0.944679 0.944679 0 2.11 0Z" stroke-width="2" stroke-miterlimit="10" stroke-linecap="round" transform="translate(1 1)" stroke="#FC4A1A"/>
</g>
</g>
</g>
</g>
</g>
</svg>

