<?xml version="1.0" encoding="UTF-8" standalone="no"?>
<svg
   xmlns:dc="http://purl.org/dc/elements/1.1/"
   xmlns:cc="http://creativecommons.org/ns#"
   xmlns:rdf="http://www.w3.org/1999/02/22-rdf-syntax-ns#"
   xmlns:svg="http://www.w3.org/2000/svg"
   xmlns="http://www.w3.org/2000/svg"
   xmlns:sodipodi="http://sodipodi.sourceforge.net/DTD/sodipodi-0.dtd"
   xmlns:inkscape="http://www.inkscape.org/namespaces/inkscape"
   width="62"
   height="53"
   viewBox="0 0 62 53"
   fill="none"
   version="1.1"
   id="svg84"
   sodipodi:docname="borda_longa.svg"
   inkscape:version="0.92.2 (5c3e80d, 2017-08-06)">
  <metadata
     id="metadata90">
    <rdf:RDF>
      <cc:Work
         rdf:about="">
        <dc:format>image/svg+xml</dc:format>
        <dc:type
           rdf:resource="http://purl.org/dc/dcmitype/StillImage" />
      </cc:Work>
    </rdf:RDF>
  </metadata>
  <defs
     id="defs88" />
  <sodipodi:namedview
     pagecolor="#ffffff"
     bordercolor="#666666"
     borderopacity="1"
     objecttolerance="10"
     gridtolerance="10"
     guidetolerance="10"
     inkscape:pageopacity="0"
     inkscape:pageshadow="2"
     inkscape:window-width="1920"
     inkscape:window-height="1052"
     id="namedview86"
     showgrid="false"
     inkscape:zoom="4.4528302"
     inkscape:cx="16.214803"
     inkscape:cy="6.0990334"
     inkscape:window-x="0"
     inkscape:window-y="0"
     inkscape:window-maximized="1"
     inkscape:current-layer="svg84" />
  <path
     style="fill:#fc4a1a;fill-opacity:1;stroke:#fc4a1a;stroke-width:1.01146519;stroke-opacity:1"
     inkscape:connector-curvature="0"
     d="M 23.967171,14.062548 H 11.826364 c -0.479508,0 -0.91821,-0.143995 -1.020235,-0.664592 -0.05241,-0.185299 -0.06587,-0.381 -0.03939,-0.572696 0.02649,-0.191697 0.09225,-0.374501 0.192428,-0.534949 0.283814,-0.265005 0.645896,-0.410456 1.020242,-0.40983 2.836256,0 5.682727,0 8.529178,0 h 15.528062 c 0.76512,0 1.254888,0.454137 1.234478,1.107646 -0.02041,0.653519 -0.48977,1.03012 -1.224273,1.03012 z"
     id="path47" />
  <path
     style="fill:#fc4a1a;fill-opacity:1;stroke:#fc4a1a;stroke-width:1.01146519;stroke-opacity:1"
     inkscape:connector-curvature="0"
     d="m 17.35547,21.924952 h -6.060217 c -0.285667,0 -0.489715,-0.199379 -0.571333,-0.830742 -0.08162,-0.631355 0.13263,-1.240562 0.469309,-1.262716 0.510121,0 1.020239,0 1.540562,0 h 10.783956 c 0.295861,0 0.499874,0.498443 0.489668,1.107649 -0.01021,0.609208 -0.214217,1.019036 -0.520284,1.019036 h -6.121466 z"
     id="path49" />
  <path
     style="fill:none;stroke:#fc4a1a;stroke-width:2.02293038;stroke-opacity:1"
     inkscape:connector-curvature="0"
     d="M 60.789758,49.582691 V 3.2230471 c 0,-1.0253777 -0.760007,-1.8566114 -1.697521,-1.8566114 H 4.7206717 c -0.9375528,0 -1.6975694,0.8312337 -1.6975694,1.8566114 V 49.582691 c 0,1.025424 0.7600166,1.856601 1.6975694,1.856601 H 59.092237 c 0.937514,0 1.697521,-0.831177 1.697521,-1.856601 z"
     id="path51" />
  <path
     style="fill:none;stroke:#fc4a1a;stroke-width:0.2528663;stroke-miterlimit:10;stroke-opacity:1"
     inkscape:connector-curvature="0"
     d="m 2.9057484,2.6762786 c 1.4909092,0 2.699532,-0.5022875 2.699532,-1.1218875 0,-0.61960123 -1.2086228,-1.12188758 -2.699532,-1.12188758 -1.4909188,0 -2.6995416,0.50228635 -2.6995416,1.12188758 0,0.6196 1.2086228,1.1218875 2.6995416,1.1218875 z"
     stroke-miterlimit="10"
     id="path53" />
  <path
     style="fill:none;stroke:#fc4a1a;stroke-width:0.2528663;stroke-miterlimit:10;stroke-opacity:1"
     inkscape:connector-curvature="0"
     d="m 2.9057484,4.1249415 c 1.4909092,0 2.699532,-0.5022875 2.699532,-1.1218876 0,-0.6196011 -1.2086228,-1.1218875 -2.699532,-1.1218875 -1.4909188,0 -2.6995416,0.5022864 -2.6995416,1.1218875 0,0.6196001 1.2086228,1.1218876 2.6995416,1.1218876 z"
     stroke-miterlimit="10"
     id="path55" />
  <path
     style="fill:none;stroke:#fc4a1a;stroke-width:0.2528663;stroke-miterlimit:10;stroke-opacity:1"
     inkscape:connector-curvature="0"
     d="m 2.9057484,5.5714791 c 1.4909092,0 2.699532,-0.5022875 2.699532,-1.1218876 0,-0.6196011 -1.2086228,-1.1218875 -2.699532,-1.1218875 -1.4909188,0 -2.6995416,0.5022864 -2.6995416,1.1218875 0,0.6196001 1.2086228,1.1218876 2.6995416,1.1218876 z"
     stroke-miterlimit="10"
     id="path57" />
  <path
     style="fill:none;stroke:#fc4a1a;stroke-width:0.2528663;stroke-miterlimit:10;stroke-opacity:1"
     inkscape:connector-curvature="0"
     d="m 2.8343102,6.8270648 c 1.4909094,0 2.6995321,-0.5022875 2.6995321,-1.1218875 0,-0.6196012 -1.2086227,-1.1218876 -2.6995321,-1.1218876 -1.4909188,0 -2.69954149,0.5022864 -2.69954149,1.1218876 0,0.6196 1.20862269,1.1218875 2.69954149,1.1218875 z"
     stroke-miterlimit="10"
     id="path59" />
  <path
     style="fill:none;stroke:#fc4a1a;stroke-width:0.2528663;stroke-miterlimit:10;stroke-opacity:1"
     inkscape:connector-curvature="0"
     d="m 2.8343102,8.2757277 c 1.4909094,0 2.6995321,-0.5022875 2.6995321,-1.1218876 0,-0.6196011 -1.2086227,-1.1218875 -2.6995321,-1.1218875 -1.4909188,0 -2.69954149,0.5022864 -2.69954149,1.1218875 0,0.6196001 1.20862269,1.1218876 2.69954149,1.1218876 z"
     stroke-miterlimit="10"
     id="path61" />
  <path
     style="fill:none;stroke:#fc4a1a;stroke-width:0.2528663;stroke-miterlimit:10;stroke-opacity:1"
     inkscape:connector-curvature="0"
     d="m 2.8343102,9.7223715 c 1.4909094,0 2.6995321,-0.5022871 2.6995321,-1.1218875 0,-0.6196012 -1.2086227,-1.1218876 -2.6995321,-1.1218876 -1.4909188,0 -2.69954149,0.5022864 -2.69954149,1.1218876 0,0.6196004 1.20862269,1.1218875 2.69954149,1.1218875 z"
     stroke-miterlimit="10"
     id="path63" />
  <path
     style="fill:none;stroke:#fc4a1a;stroke-width:0.2528663;stroke-miterlimit:10;stroke-opacity:1"
     inkscape:connector-curvature="0"
     d="m 2.9057484,10.99039 c 1.4909092,0 2.699532,-0.502288 2.699532,-1.1218878 0,-0.6196012 -1.2086228,-1.1218874 -2.699532,-1.1218874 -1.4909188,0 -2.6995416,0.5022862 -2.6995416,1.1218874 0,0.6195998 1.2086228,1.1218878 2.6995416,1.1218878 z"
     stroke-miterlimit="10"
     id="path65" />
  <path
     style="fill:none;stroke:#fc4a1a;stroke-width:0.2528663;stroke-miterlimit:10;stroke-opacity:1"
     inkscape:connector-curvature="0"
     d="m 2.9057484,12.436928 c 1.4909092,0 2.699532,-0.502287 2.699532,-1.121888 0,-0.619602 -1.2086228,-1.121888 -2.699532,-1.121888 -1.4909188,0 -2.6995416,0.502286 -2.6995416,1.121888 0,0.619601 1.2086228,1.121888 2.6995416,1.121888 z"
     stroke-miterlimit="10"
     id="path67" />
  <path
     style="fill:none;stroke:#fc4a1a;stroke-width:0.2528663;stroke-miterlimit:10;stroke-opacity:1"
     inkscape:connector-curvature="0"
     d="m 2.9057484,13.88357 c 1.4909092,0 2.699532,-0.502287 2.699532,-1.121886 0,-0.619601 -1.2086228,-1.121887 -2.699532,-1.121887 -1.4909188,0 -2.6995416,0.502286 -2.6995416,1.121887 0,0.619599 1.2086228,1.121886 2.6995416,1.121886 z"
     stroke-miterlimit="10"
     id="path69" />
  <path
     style="fill:none;stroke:#fc4a1a;stroke-width:0.2528663;stroke-miterlimit:10;stroke-opacity:1"
     inkscape:connector-curvature="0"
     d="m 2.9960569,15.07487 c 1.4909092,0 2.699532,-0.502289 2.699532,-1.121889 0,-0.619601 -1.2086228,-1.121887 -2.699532,-1.121887 -1.4909188,0 -2.69954157,0.502286 -2.69954157,1.121887 0,0.6196 1.20862277,1.121889 2.69954157,1.121889 z"
     stroke-miterlimit="10"
     id="path71" />
  <path
     style="fill:none;stroke:#fc4a1a;stroke-width:0.2528663;stroke-miterlimit:10;stroke-opacity:1"
     inkscape:connector-curvature="0"
     d="m 2.9960569,16.519282 c 1.4909092,0 2.699532,-0.502289 2.699532,-1.121889 0,-0.6196 -1.2086228,-1.121886 -2.699532,-1.121886 -1.4909188,0 -2.69954157,0.502286 -2.69954157,1.121886 0,0.6196 1.20862277,1.121889 2.69954157,1.121889 z"
     stroke-miterlimit="10"
     id="path73" />
  <path
     style="fill:none;stroke:#fc4a1a;stroke-width:0.2528663;stroke-miterlimit:10;stroke-opacity:1"
     inkscape:connector-curvature="0"
     d="m 2.9960569,17.967943 c 1.4909092,0 2.699532,-0.502287 2.699532,-1.121886 0,-0.619601 -1.2086228,-1.121888 -2.699532,-1.121888 -1.4909188,0 -2.69954157,0.502287 -2.69954157,1.121888 0,0.619599 1.20862277,1.121886 2.69954157,1.121886 z"
     stroke-miterlimit="10"
     id="path75" />
  <path
     style="fill:none;stroke:#fc4a1a;stroke-width:0.2528663;stroke-miterlimit:10;stroke-opacity:1"
     inkscape:connector-curvature="0"
     d="m 2.9846962,19.16753 c 1.4909092,0 2.6995319,-0.502287 2.6995319,-1.121887 0,-0.619602 -1.2086227,-1.121889 -2.6995319,-1.121889 -1.4909188,0 -2.69954164,0.502287 -2.69954164,1.121889 0,0.6196 1.20862284,1.121887 2.69954164,1.121887 z"
     stroke-miterlimit="10"
     id="path77" />
  <path
     style="fill:none;stroke:#fc4a1a;stroke-width:0.2528663;stroke-miterlimit:10;stroke-opacity:1"
     inkscape:connector-curvature="0"
     d="m 2.9846962,20.616193 c 1.4909092,0 2.6995319,-0.502287 2.6995319,-1.121888 0,-0.619601 -1.2086227,-1.121887 -2.6995319,-1.121887 -1.4909188,0 -2.69954164,0.502286 -2.69954164,1.121887 0,0.619601 1.20862284,1.121888 2.69954164,1.121888 z"
     stroke-miterlimit="10"
     id="path79" />
  <path
     style="fill:none;stroke:#fc4a1a;stroke-width:0.2528663;stroke-miterlimit:10;stroke-opacity:1"
     inkscape:connector-curvature="0"
     d="m 2.9846962,22.06273 c 1.4909092,0 2.6995319,-0.502287 2.6995319,-1.121887 0,-0.619601 -1.2086227,-1.121888 -2.6995319,-1.121888 -1.4909188,0 -2.69954164,0.502287 -2.69954164,1.121888 0,0.6196 1.20862284,1.121887 2.69954164,1.121887 z"
     stroke-miterlimit="10"
     id="path81" />
  <path
     style="fill:none;stroke:#fc4a1a;stroke-width:0.2528663;stroke-miterlimit:10;stroke-opacity:1"
     inkscape:connector-curvature="0"
     d="m 2.9151836,23.320441 c 1.4909092,0 2.699532,-0.502287 2.699532,-1.121887 0,-0.619601 -1.2086228,-1.121888 -2.699532,-1.121888 -1.4909188,0 -2.69954158,0.502287 -2.69954158,1.121888 0,0.6196 1.20862278,1.121887 2.69954158,1.121887 z"
     stroke-miterlimit="10"
     id="path83" />
  <path
     style="fill:none;stroke:#fc4a1a;stroke-width:0.2528663;stroke-miterlimit:10;stroke-opacity:1"
     inkscape:connector-curvature="0"
     d="m 2.9151836,24.76496 c 1.4909092,0 2.699532,-0.502288 2.699532,-1.121888 0,-0.6196 -1.2086228,-1.121887 -2.699532,-1.121887 -1.4909188,0 -2.69954158,0.502287 -2.69954158,1.121887 0,0.6196 1.20862278,1.121888 2.69954158,1.121888 z"
     stroke-miterlimit="10"
     id="path85" />
  <path
     style="fill:none;stroke:#fc4a1a;stroke-width:0.2528663;stroke-miterlimit:10;stroke-opacity:1"
     inkscape:connector-curvature="0"
     d="m 2.9151836,26.213623 c 1.4909092,0 2.699532,-0.502288 2.699532,-1.121887 0,-0.619602 -1.2086228,-1.121888 -2.699532,-1.121888 -1.4909188,0 -2.69954158,0.502286 -2.69954158,1.121888 0,0.619599 1.20862278,1.121887 2.69954158,1.121887 z"
     stroke-miterlimit="10"
     id="path87" />
  <path
     style="fill:none;stroke:#fc4a1a;stroke-width:0.2528663;stroke-miterlimit:10;stroke-opacity:1"
     inkscape:connector-curvature="0"
     d="m 2.9846962,27.481747 c 1.4909092,0 2.6995319,-0.502287 2.6995319,-1.121887 0,-0.619601 -1.2086227,-1.121888 -2.6995319,-1.121888 -1.4909188,0 -2.69954164,0.502287 -2.69954164,1.121888 0,0.6196 1.20862284,1.121887 2.69954164,1.121887 z"
     stroke-miterlimit="10"
     id="path89" />
  <path
     style="fill:none;stroke:#fc4a1a;stroke-width:0.2528663;stroke-miterlimit:10;stroke-opacity:1"
     inkscape:connector-curvature="0"
     d="m 2.9846962,28.928286 c 1.4909092,0 2.6995319,-0.502288 2.6995319,-1.121888 0,-0.619602 -1.2086227,-1.121888 -2.6995319,-1.121888 -1.4909188,0 -2.69954164,0.502286 -2.69954164,1.121888 0,0.6196 1.20862284,1.121888 2.69954164,1.121888 z"
     stroke-miterlimit="10"
     id="path91" />
  <path
     style="fill:none;stroke:#fc4a1a;stroke-width:0.2528663;stroke-miterlimit:10;stroke-opacity:1"
     inkscape:connector-curvature="0"
     d="m 2.9846962,30.374823 c 1.4909092,0 2.6995319,-0.502287 2.6995319,-1.121888 0,-0.619601 -1.2086227,-1.121887 -2.6995319,-1.121887 -1.4909188,0 -2.69954164,0.502286 -2.69954164,1.121887 0,0.619601 1.20862284,1.121888 2.69954164,1.121888 z"
     stroke-miterlimit="10"
     id="path93" />
  <path
     style="fill:none;stroke:#fc4a1a;stroke-width:0.2528663;stroke-miterlimit:10;stroke-opacity:1"
     inkscape:connector-curvature="0"
     d="m 3.0769302,31.563995 c 1.4909092,0 2.6995321,-0.502288 2.6995321,-1.121887 0,-0.619601 -1.2086229,-1.121887 -2.6995321,-1.121887 -1.4909188,0 -2.69954155,0.502286 -2.69954155,1.121887 0,0.619599 1.20862275,1.121887 2.69954155,1.121887 z"
     stroke-miterlimit="10"
     id="path95" />
  <path
     style="fill:none;stroke:#fc4a1a;stroke-width:0.2528663;stroke-miterlimit:10;stroke-opacity:1"
     inkscape:connector-curvature="0"
     d="m 3.0769302,33.012658 c 1.4909092,0 2.6995321,-0.502287 2.6995321,-1.121887 0,-0.619602 -1.2086229,-1.121889 -2.6995321,-1.121889 -1.4909188,0 -2.69954155,0.502287 -2.69954155,1.121889 0,0.6196 1.20862275,1.121887 2.69954155,1.121887 z"
     stroke-miterlimit="10"
     id="path97" />
  <path
     style="fill:none;stroke:#fc4a1a;stroke-width:0.2528663;stroke-miterlimit:10;stroke-opacity:1"
     inkscape:connector-curvature="0"
     d="m 3.0769302,34.459302 c 1.4909092,0 2.6995321,-0.502288 2.6995321,-1.121887 0,-0.619602 -1.2086229,-1.121888 -2.6995321,-1.121888 -1.4909188,0 -2.69954155,0.502286 -2.69954155,1.121888 0,0.619599 1.20862275,1.121887 2.69954155,1.121887 z"
     stroke-miterlimit="10"
     id="path99" />
  <path
     style="fill:none;stroke:#fc4a1a;stroke-width:0.2528663;stroke-miterlimit:10;stroke-opacity:1"
     inkscape:connector-curvature="0"
     d="m 2.9960569,35.660906 c 1.4909092,0 2.699532,-0.502287 2.699532,-1.121886 0,-0.619601 -1.2086228,-1.121888 -2.699532,-1.121888 -1.4909188,0 -2.69954157,0.502287 -2.69954157,1.121888 0,0.619599 1.20862277,1.121886 2.69954157,1.121886 z"
     stroke-miterlimit="10"
     id="path101" />
  <path
     style="fill:none;stroke:#fc4a1a;stroke-width:0.2528663;stroke-miterlimit:10;stroke-opacity:1"
     inkscape:connector-curvature="0"
     d="m 2.9960569,37.107444 c 1.4909092,0 2.699532,-0.502288 2.699532,-1.121887 0,-0.619601 -1.2086228,-1.121887 -2.699532,-1.121887 -1.4909188,0 -2.69954157,0.502286 -2.69954157,1.121887 0,0.619599 1.20862277,1.121887 2.69954157,1.121887 z"
     stroke-miterlimit="10"
     id="path103" />
  <path
     style="fill:none;stroke:#fc4a1a;stroke-width:0.2528663;stroke-miterlimit:10;stroke-opacity:1"
     inkscape:connector-curvature="0"
     d="m 2.9960569,38.554088 c 1.4909092,0 2.699532,-0.502287 2.699532,-1.121887 0,-0.619601 -1.2086228,-1.121889 -2.699532,-1.121889 -1.4909188,0 -2.69954157,0.502288 -2.69954157,1.121889 0,0.6196 1.20862277,1.121887 2.69954157,1.121887 z"
     stroke-miterlimit="10"
     id="path105" />
  <path
     style="fill:none;stroke:#fc4a1a;stroke-width:0.2528663;stroke-miterlimit:10;stroke-opacity:1"
     inkscape:connector-curvature="0"
     d="m 3.0655694,39.822107 c 1.4909093,0 2.6995321,-0.502288 2.6995321,-1.121887 0,-0.619603 -1.2086228,-1.121889 -2.6995321,-1.121889 -1.4909188,0 -2.69954152,0.502286 -2.69954152,1.121889 0,0.619599 1.20862272,1.121887 2.69954152,1.121887 z"
     stroke-miterlimit="10"
     id="path107" />
  <path
     style="fill:none;stroke:#fc4a1a;stroke-width:0.2528663;stroke-miterlimit:10;stroke-opacity:1"
     inkscape:connector-curvature="0"
     d="m 3.0655694,41.27077 c 1.4909093,0 2.6995321,-0.502287 2.6995321,-1.121889 0,-0.619601 -1.2086228,-1.121887 -2.6995321,-1.121887 -1.4909188,0 -2.69954152,0.502286 -2.69954152,1.121887 0,0.619602 1.20862272,1.121889 2.69954152,1.121889 z"
     stroke-miterlimit="10"
     id="path109" />
  <path
     style="fill:none;stroke:#fc4a1a;stroke-width:0.2528663;stroke-miterlimit:10;stroke-opacity:1"
     inkscape:connector-curvature="0"
     d="m 3.0655694,42.715288 c 1.4909093,0 2.6995321,-0.502287 2.6995321,-1.121887 0,-0.619602 -1.2086228,-1.121888 -2.6995321,-1.121888 -1.4909188,0 -2.69954152,0.502286 -2.69954152,1.121888 0,0.6196 1.20862272,1.121887 2.69954152,1.121887 z"
     stroke-miterlimit="10"
     id="path111" />
  <path
     style="fill:none;stroke:#fc4a1a;stroke-width:0.2528663;stroke-miterlimit:10;stroke-opacity:1"
     inkscape:connector-curvature="0"
     d="m 3.1653133,43.904461 c 1.4909091,0 2.6995319,-0.502287 2.6995319,-1.121889 0,-0.619601 -1.2086228,-1.121887 -2.6995319,-1.121887 -1.4909189,0 -2.69954177,0.502286 -2.69954177,1.121887 0,0.619602 1.20862287,1.121889 2.69954177,1.121889 z"
     stroke-miterlimit="10"
     id="path113" />
  <path
     style="fill:none;stroke:#fc4a1a;stroke-width:0.2528663;stroke-miterlimit:10;stroke-opacity:1"
     inkscape:connector-curvature="0"
     d="m 3.1653133,45.353122 c 1.4909091,0 2.6995319,-0.502287 2.6995319,-1.121886 0,-0.619601 -1.2086228,-1.121887 -2.6995319,-1.121887 -1.4909189,0 -2.69954177,0.502286 -2.69954177,1.121887 0,0.619599 1.20862287,1.121886 2.69954177,1.121886 z"
     stroke-miterlimit="10"
     id="path115" />
  <path
     style="fill:none;stroke:#fc4a1a;stroke-width:0.2528663;stroke-miterlimit:10;stroke-opacity:1"
     inkscape:connector-curvature="0"
     d="m 3.1653133,46.799661 c 1.4909091,0 2.6995319,-0.502288 2.6995319,-1.121888 0,-0.619601 -1.2086228,-1.121887 -2.6995319,-1.121887 -1.4909189,0 -2.69954177,0.502286 -2.69954177,1.121887 0,0.6196 1.20862287,1.121888 2.69954177,1.121888 z"
     stroke-miterlimit="10"
     id="path117" />
  <path
     style="fill:none;stroke:#fc4a1a;stroke-width:0.2528663;stroke-miterlimit:10;stroke-opacity:1"
     inkscape:connector-curvature="0"
     d="m 3.1144786,47.990958 c 1.4909092,0 2.6995319,-0.502287 2.6995319,-1.121887 0,-0.619601 -1.2086227,-1.121887 -2.6995319,-1.121887 -1.4909188,0 -2.69954162,0.502286 -2.69954162,1.121887 0,0.6196 1.20862282,1.121887 2.69954162,1.121887 z"
     stroke-miterlimit="10"
     id="path119" />
  <path
     style="fill:none;stroke:#fc4a1a;stroke-width:0.2528663;stroke-miterlimit:10;stroke-opacity:1"
     inkscape:connector-curvature="0"
     d="m 3.1144786,49.435477 c 1.4909092,0 2.6995319,-0.502287 2.6995319,-1.121887 0,-0.619602 -1.2086227,-1.121888 -2.6995319,-1.121888 -1.4909188,0 -2.69954162,0.502286 -2.69954162,1.121888 0,0.6196 1.20862282,1.121887 2.69954162,1.121887 z"
     stroke-miterlimit="10"
     id="path121" />
  <path
     style="fill:none;stroke:#fc4a1a;stroke-width:0.2528663;stroke-miterlimit:10;stroke-opacity:1"
     inkscape:connector-curvature="0"
     d="m 3.217881,50.626774 c 1.4909091,0 2.6995319,-0.502287 2.6995319,-1.121887 0,-0.619601 -1.2086228,-1.121888 -2.6995319,-1.121888 -1.490919,0 -2.69954181,0.502287 -2.69954181,1.121888 0,0.6196 1.20862281,1.121887 2.69954181,1.121887 z"
     stroke-miterlimit="10"
     id="path123" />
  <path
     style="fill:none;stroke:#fc4a1a;stroke-width:0.2528663;stroke-miterlimit:10;stroke-opacity:1"
     inkscape:connector-curvature="0"
     d="m 3.217881,52.075437 c 1.4909091,0 2.6995319,-0.502287 2.6995319,-1.121887 0,-0.619601 -1.2086228,-1.121887 -2.6995319,-1.121887 -1.490919,0 -2.69954181,0.502286 -2.69954181,1.121887 0,0.6196 1.20862281,1.121887 2.69954181,1.121887 z"
     stroke-miterlimit="10"
     id="path125" />
</svg>
