<svg width="48" height="59" viewBox="0 0 48 59" version="1.1" xmlns="http://www.w3.org/2000/svg" xmlns:xlink="http://www.w3.org/1999/xlink">
<g id="Canvas" fill="none">
<g id="reciclado">
<g id="Layer 2">
<g id="Layer 1">
<g id="Vector">
<path d="M 13.0147 0.0313317L 25.1447 0.0313317C 25.3743 0.0407501 25.5923 0.13486 25.7566 0.295511C 25.921 0.456162 26.02 0.671975 26.0347 0.901331C 26.0619 1.12794 26.003 1.35651 25.8697 1.54174C 25.7363 1.72696 25.5382 1.85531 25.3147 1.90133C 25.1243 1.94271 24.9293 1.95951 24.7347 1.95133L 1.49465 1.95133C 1.22233 1.95992 0.950039 1.93303 0.684654 1.87133C 0.464346 1.82545 0.270799 1.69504 0.145541 1.50809C 0.0202825 1.32114 -0.0267063 1.09253 0.0146546 0.871332C 0.030243 0.65176 0.123209 0.444835 0.277019 0.287363C 0.430829 0.129891 0.635509 0.032081 0.854654 0.0113313C 0.990903 -0.00377749 1.12841 -0.00377749 1.26465 0.0113313L 13.0147 0.0313317Z" transform="translate(10.5059 30.5586)" fill="#FC4A1A"/>
</g>
<g id="Vector_2">
<path d="M 12.9516 1.97036L 1.05155 1.97036C 0.571555 1.97036 0.151555 1.84035 0.051555 1.37035C 0.000178676 1.20306 -0.0130154 1.02638 0.0129445 0.853314C 0.0389044 0.680248 0.103357 0.515209 0.201556 0.370354C 0.475799 0.124491 0.833328 -0.00779359 1.20156 0.000355462C 3.99156 0.000355462 6.78155 0.000355462 9.57155 0.000355462L 24.7816 0.000355462C 25.5316 0.000355462 26.0016 0.410356 25.9816 1.00036C 25.9616 1.59036 25.5116 1.93036 24.7916 1.93036L 12.9516 1.97036Z" transform="translate(10.5684 38.5898)" fill="#FC4A1A"/>
</g>
<g id="Vector_3">
<path d="M 13.0369 1.89074L 1.14687 1.89074C 0.900288 1.92788 0.648722 1.87155 0.44152 1.7328C 0.234319 1.59405 0.0864346 1.38289 0.0268742 1.14074C -0.00736833 1.00219 -0.00890829 0.85758 0.0223757 0.718334C 0.0536596 0.579089 0.11691 0.44903 0.207124 0.338444C 0.297339 0.227858 0.412045 0.139777 0.54217 0.0811654C 0.672296 0.0225539 0.814272 -0.00498002 0.956874 0.000740096C 1.95687 0.000740096 2.95687 0.000740096 3.95687 0.000740096L 25.0969 0.000740096C 25.3621 0.000740096 25.6164 0.106096 25.804 0.293633C 25.9915 0.481169 26.0969 0.735524 26.0969 1.00074C 26.0944 1.12771 26.0663 1.25286 26.0141 1.36865C 25.962 1.48444 25.8869 1.58846 25.7935 1.67444C 25.7 1.76042 25.5901 1.82657 25.4704 1.8689C 25.3507 1.91124 25.2236 1.92887 25.0969 1.92074L 13.0969 1.92074L 13.0369 1.89074Z" transform="translate(10.4824 46.6992)" fill="#FC4A1A"/>
</g>
<g id="Vector_4">
<path d="M 1.67 0L 43.37 0C 44.2923 0 45.04 0.747685 45.04 1.67L 45.04 55.16C 45.04 56.0823 44.2923 56.83 43.37 56.83L 1.67 56.83C 0.747685 56.83 0 56.0823 0 55.16L 0 1.67C 0 0.747685 0.747685 0 1.67 0Z" stroke-width="2" transform="translate(1 1)" stroke="#FC4A1A"/>
</g>
<g id="Vector_5">
<path d="M 3.29244 3.6C 3.77467 3.79308 4.29418 3.87511 4.81244 3.84C 5.5936 3.78023 6.3325 3.46157 6.91212 2.93448C 7.49174 2.40739 7.87895 1.70199 8.01244 0.93C 8.0472 0.751948 8.06727 0.57134 8.07244 0.39C 8.07244 0.0899999 8.18244 -3.8147e-07 8.48244 -3.8147e-07L 9.62244 -3.8147e-07C 9.88244 -3.8147e-07 10.0024 0.11 9.99244 0.38C 9.98225 1.31529 9.7324 2.23235 9.26676 3.04355C 8.80111 3.85476 8.13523 4.53301 7.33274 5.0135C 6.53024 5.49399 5.61794 5.76068 4.68299 5.78808C 3.74805 5.81548 2.82169 5.60267 1.99244 5.17C 1.96756 5.14915 1.93855 5.1338 1.90732 5.12496C 1.87608 5.11612 1.84333 5.11399 1.81122 5.11871C 1.7791 5.12343 1.74835 5.1349 1.72099 5.15236C 1.69362 5.16981 1.67026 5.19287 1.65244 5.22C 1.51938 5.37637 1.37571 5.52338 1.22244 5.66C 1.18215 5.71072 1.12741 5.74802 1.06546 5.76697C 1.00352 5.78592 0.937281 5.78561 0.875509 5.76611C 0.813738 5.7466 0.759341 5.70881 0.719511 5.65772C 0.679681 5.60663 0.656291 5.54466 0.652437 5.48C 0.432437 4.48 0.222438 3.39 0.0124379 2.34C -0.00407354 2.28157 -0.00414644 2.21973 0.0122262 2.16126C 0.0285987 2.1028 0.0607826 2.04998 0.105236 2.00863C 0.14969 1.96728 0.20469 1.93899 0.264183 1.92688C 0.323677 1.91478 0.385358 1.91931 0.442438 1.94L 3.52244 2.55C 3.59515 2.55323 3.66505 2.57904 3.7224 2.62385C 3.77976 2.66866 3.82171 2.73023 3.84244 2.8C 3.86294 2.86998 3.86039 2.94469 3.83518 3.01312C 3.80998 3.08154 3.76344 3.14005 3.70244 3.18L 3.29244 3.6ZM 8.74244 0.6C 8.74244 0.78 8.69244 0.95 8.66244 1.11C 8.46912 2.03577 7.96901 2.8692 7.24306 3.47536C 6.51712 4.08152 5.60784 4.42493 4.66244 4.45C 4.08065 4.46249 3.50237 4.35704 2.96244 4.14C 2.933 4.12507 2.90045 4.11728 2.86744 4.11728C 2.83443 4.11728 2.80188 4.12507 2.77244 4.14C 2.62244 4.26 2.48244 4.39 2.31244 4.55C 3.06445 4.95483 3.91152 5.14987 4.76485 5.11468C 5.61817 5.0795 6.44631 4.81537 7.16244 4.35C 7.80243 3.95295 8.3374 3.4076 8.72207 2.76009C 9.10675 2.11258 9.32983 1.38195 9.37244 0.63L 8.74244 0.6ZM 2.91244 3.08L 0.812437 2.66L 1.23244 4.76L 2.91244 3.08Z" transform="translate(18.9883 13.6504)" fill="#FC4A1A"/>
</g>
<g id="Vector_6">
<path d="M 6.73 2.16997C 6.268 1.99179 5.77368 1.91279 5.27916 1.93813C 4.78464 1.96346 4.30098 2.09255 3.8596 2.31701C 3.41823 2.54147 3.02902 2.85627 2.71725 3.24098C 2.40549 3.62568 2.17815 4.07167 2.05 4.54997C 1.98975 4.83682 1.94965 5.12753 1.93 5.41997C 1.93 5.65997 1.8 5.77997 1.57 5.77997L 0.359999 5.77997C 0.109999 5.77997 3.8147e-07 5.65997 3.8147e-07 5.40997C 0.00947687 4.66845 0.169358 3.93657 0.469962 3.25865C 0.770565 2.58073 1.20563 1.97087 1.74883 1.46602C 2.29202 0.961156 2.93203 0.571798 3.6301 0.321521C 4.32817 0.0712441 5.06977 -0.0347447 5.81 0.009973C 6.57265 0.0507486 7.31695 0.259016 7.99 0.619973C 8.00784 0.641037 8.03005 0.657962 8.05509 0.66957C 8.08013 0.681179 8.1074 0.687192 8.135 0.687192C 8.1626 0.687192 8.18987 0.681179 8.21491 0.66957C 8.23995 0.657962 8.26216 0.641037 8.28 0.619973C 8.42 0.459973 8.58 0.299972 8.74 0.149972C 8.78182 0.103994 8.83577 0.0707594 8.89565 0.0540947C 8.95552 0.0374301 9.01888 0.0380129 9.07844 0.0557761C 9.138 0.0735392 9.19133 0.10776 9.2323 0.1545C 9.27327 0.20124 9.3002 0.258599 9.31 0.319972C 9.52 1.37997 9.74 2.43997 9.95 3.49997C 10 3.75997 9.8 3.93997 9.51 3.87997L 7.67 3.48997L 6.4 3.22997C 6.33365 3.22665 6.26998 3.20277 6.21782 3.16163C 6.16566 3.12048 6.12759 3.06413 6.10891 3.00038C 6.09022 2.93663 6.09184 2.86864 6.11354 2.80585C 6.13524 2.74306 6.17594 2.68858 6.23 2.64997C 6.38 2.48997 6.54 2.34997 6.73 2.16997ZM 7.66 1.16997C 6.94645 0.814628 6.15632 0.640634 5.35952 0.66339C 4.56271 0.686145 3.7838 0.904947 3.09169 1.30043C 2.39959 1.69592 1.81563 2.2559 1.3915 2.93083C 0.96736 3.60576 0.716118 4.37482 0.66 5.16997L 1.29 5.16997C 1.29385 5.10003 1.29385 5.02992 1.29 4.95997C 1.36045 4.34889 1.56586 3.76111 1.89138 3.23917C 2.21689 2.71723 2.65437 2.27417 3.17214 1.94207C 3.68992 1.60997 4.27504 1.39712 4.88518 1.31893C 5.49532 1.24074 6.11521 1.29916 6.7 1.48997C 6.86212 1.57576 7.05145 1.59449 7.22724 1.54213C 7.40303 1.48977 7.55124 1.37049 7.64 1.20997L 7.66 1.16997ZM 9.22 3.16997L 8.8 1.06997L 7.11 2.74997L 9.22 3.16997Z" transform="translate(18.0996 8.50977)" fill="#FC4A1A"/>
</g>
</g>
</g>
</g>
</g>
</svg>

